# Created at 2019-09-26T10:05:43.192
java.lang.OutOfMemoryError
	at java.util.zip.ZipFile.open(Native Method)
	at java.util.zip.ZipFile.<init>(ZipFile.java:219)
	at java.util.zip.ZipFile.<init>(ZipFile.java:149)
	at java.util.jar.JarFile.<init>(JarFile.java:166)
	at java.util.jar.JarFile.<init>(JarFile.java:103)
	at sun.misc.URLClassPath$JarLoader.getJarFile(URLClassPath.java:893)
	at sun.misc.URLClassPath$JarLoader.access$700(URLClassPath.java:756)
	at sun.misc.URLClassPath$JarLoader$1.run(URLClassPath.java:838)
	at sun.misc.URLClassPath$JarLoader$1.run(URLClassPath.java:831)
	at java.security.AccessController.doPrivileged(Native Method)
	at sun.misc.URLClassPath$JarLoader.ensureOpen(URLClassPath.java:830)
	at sun.misc.URLClassPath$JarLoader.<init>(URLClassPath.java:803)
	at sun.misc.URLClassPath$3.run(URLClassPath.java:530)
	at sun.misc.URLClassPath$3.run(URLClassPath.java:520)
	at java.security.AccessController.doPrivileged(Native Method)
	at sun.misc.URLClassPath.getLoader(URLClassPath.java:519)
	at sun.misc.URLClassPath.getLoader(URLClassPath.java:492)
	at sun.misc.URLClassPath.getNextLoader(URLClassPath.java:457)
	at sun.misc.URLClassPath.getResource(URLClassPath.java:211)
	at java.net.URLClassLoader$1.run(URLClassLoader.java:365)
	at java.net.URLClassLoader$1.run(URLClassLoader.java:362)
	at java.security.AccessController.doPrivileged(Native Method)
	at java.net.URLClassLoader.findClass(URLClassLoader.java:361)
	at java.lang.ClassLoader.loadClass(ClassLoader.java:424)
	at sun.misc.Launcher$AppClassLoader.loadClass(Launcher.java:331)
	at java.lang.ClassLoader.loadClass(ClassLoader.java:357)
	at org.apache.maven.surefire.util.ReflectionUtils.loadClass(ReflectionUtils.java:241)
	at org.apache.maven.surefire.util.ReflectionUtils.instantiateOneArg(ReflectionUtils.java:133)
	at org.apache.maven.surefire.booter.ForkedBooter.createProviderInCurrentClassloader(ForkedBooter.java:403)
	at org.apache.maven.surefire.booter.ForkedBooter.invokeProviderInSameClassLoader(ForkedBooter.java:383)
	at org.apache.maven.surefire.booter.ForkedBooter.runSuitesInProcess(ForkedBooter.java:345)
	at org.apache.maven.surefire.booter.ForkedBooter.execute(ForkedBooter.java:126)
	at org.apache.maven.surefire.booter.ForkedBooter.main(ForkedBooter.java:418)


